^C:\USERS\משתמש\DESKTOP\GALIL_MARAVI-602-SANDBOX\VM\RELEASE\MAIN.OBJ|C:\USERS\משתמש\DESKTOP\GALIL_MARAVI-602-SANDBOX\VM\RELEASE\VMWARE_VIRTUAL_MACHINE.OBJ
C:\USERS\משתמש\DESKTOP\GALIL_MARAVI-602-SANDBOX\VM\RELEASE\VM.EXE
C:\USERS\משתמש\DESKTOP\GALIL_MARAVI-602-SANDBOX\VM\RELEASE\VM.PDB
