^C:\USERS\SHON\DESKTOP\SYSCALLHOOKING\INJECTOR\X64\DEBUG\INJECTOR.OBJ|C:\USERS\SHON\DESKTOP\SYSCALLHOOKING\INJECTOR\X64\DEBUG\STDAFX.OBJ
/OUT:"C:\USERS\SHON\DESKTOP\SYSCALLHOOKING\X64\DEBUG\INJECTOR.EXE" /INCREMENTAL /NOLOGO KERNEL32.LIB USER32.LIB GDI32.LIB WINSPOOL.LIB COMDLG32.LIB ADVAPI32.LIB SHELL32.LIB OLE32.LIB OLEAUT32.LIB UUID.LIB ODBC32.LIB ODBCCP32.LIB /MANIFEST /MANIFESTUAC:"level='asInvoker' uiAccess='false'" /manifest:embed /DEBUG:FASTLINK /PDB:"C:\USERS\SHON\DESKTOP\SYSCALLHOOKING\X64\DEBUG\INJECTOR.PDB" /SUBSYSTEM:CONSOLE /TLBID:1 /DYNAMICBASE /NXCOMPAT /IMPLIB:"C:\USERS\SHON\DESKTOP\SYSCALLHOOKING\X64\DEBUG\INJECTOR.LIB" /MACHINE:X64 X64\DEBUG\INJECTOR.OBJ
X64\DEBUG\STDAFX.OBJ
^C:\USERS\SHON\DESKTOP\HOOKING\DLL\INJECTOR\X64\DEBUG\INJECTOR.OBJ|C:\USERS\SHON\DESKTOP\HOOKING\DLL\INJECTOR\X64\DEBUG\STDAFX.OBJ
/OUT:"C:\USERS\SHON\DESKTOP\HOOKING\DLL\X64\DEBUG\INJECTOR.EXE" /INCREMENTAL /NOLOGO KERNEL32.LIB USER32.LIB GDI32.LIB WINSPOOL.LIB COMDLG32.LIB ADVAPI32.LIB SHELL32.LIB OLE32.LIB OLEAUT32.LIB UUID.LIB ODBC32.LIB ODBCCP32.LIB /MANIFEST /MANIFESTUAC:"level='asInvoker' uiAccess='false'" /manifest:embed /DEBUG:FASTLINK /PDB:"C:\USERS\SHON\DESKTOP\HOOKING\DLL\X64\DEBUG\INJECTOR.PDB" /SUBSYSTEM:CONSOLE /TLBID:1 /DYNAMICBASE /NXCOMPAT /IMPLIB:"C:\USERS\SHON\DESKTOP\HOOKING\DLL\X64\DEBUG\INJECTOR.LIB" /MACHINE:X64 X64\DEBUG\INJECTOR.OBJ
X64\DEBUG\STDAFX.OBJ
^C:\USERS\SHON\DESKTOP\MAGSHIMIM\פרויקט יב\HOOKING\DLL\INJECTOR\X64\DEBUG\INJECTOR.OBJ|C:\USERS\SHON\DESKTOP\MAGSHIMIM\פרויקט יב\HOOKING\DLL\INJECTOR\X64\DEBUG\STDAFX.OBJ
/OUT:"C:\USERS\SHON\DESKTOP\MAGSHIMIM\פרויקט יב\HOOKING\DLL\X64\DEBUG\INJECTOR.EXE" /INCREMENTAL /NOLOGO KERNEL32.LIB USER32.LIB GDI32.LIB WINSPOOL.LIB COMDLG32.LIB ADVAPI32.LIB SHELL32.LIB OLE32.LIB OLEAUT32.LIB UUID.LIB ODBC32.LIB ODBCCP32.LIB /MANIFEST /MANIFESTUAC:"level='asInvoker' uiAccess='false'" /manifest:embed /DEBUG:FASTLINK /PDB:"C:\USERS\SHON\DESKTOP\MAGSHIMIM\פרויקט יב\HOOKING\DLL\X64\DEBUG\INJECTOR.PDB" /SUBSYSTEM:CONSOLE /TLBID:1 /DYNAMICBASE /NXCOMPAT /IMPLIB:"C:\USERS\SHON\DESKTOP\MAGSHIMIM\פרויקט יב\HOOKING\DLL\X64\DEBUG\INJECTOR.LIB" /MACHINE:X64 X64\DEBUG\INJECTOR.OBJ
X64\DEBUG\STDAFX.OBJ
^C:\USERS\SHON\DESKTOP\MAGSHIMIM\ENDPROJECT\HOOKING\DLL\INJECTOR\X64\DEBUG\INJECTOR.OBJ|C:\USERS\SHON\DESKTOP\MAGSHIMIM\ENDPROJECT\HOOKING\DLL\INJECTOR\X64\DEBUG\STDAFX.OBJ
/OUT:"C:\USERS\SHON\DESKTOP\MAGSHIMIM\ENDPROJECT\HOOKING\DLL\X64\DEBUG\INJECTOR.EXE" /INCREMENTAL /ILK:"X64\DEBUG\INJECTOR.ILK" /NOLOGO KERNEL32.LIB USER32.LIB GDI32.LIB WINSPOOL.LIB COMDLG32.LIB ADVAPI32.LIB SHELL32.LIB OLE32.LIB OLEAUT32.LIB UUID.LIB ODBC32.LIB ODBCCP32.LIB /MANIFEST /MANIFESTUAC:"level='asInvoker' uiAccess='false'" /manifest:embed /DEBUG /PDB:"C:\USERS\SHON\DESKTOP\MAGSHIMIM\ENDPROJECT\HOOKING\DLL\X64\DEBUG\INJECTOR.PDB" /SUBSYSTEM:CONSOLE /TLBID:1 /DYNAMICBASE /NXCOMPAT /IMPLIB:"C:\USERS\SHON\DESKTOP\MAGSHIMIM\ENDPROJECT\HOOKING\DLL\X64\DEBUG\INJECTOR.LIB" /MACHINE:X64 X64\DEBUG\INJECTOR.OBJ
X64\DEBUG\STDAFX.OBJ
^C:\USERS\A\DESKTOP\GALIL_MARAVI-602-SANDBOX\DLL_HOOKING\INJECTOR\X64\DEBUG\INJECTOR.OBJ|C:\USERS\A\DESKTOP\GALIL_MARAVI-602-SANDBOX\DLL_HOOKING\INJECTOR\X64\DEBUG\STDAFX.OBJ
/OUT:"C:\USERS\A\DESKTOP\GALIL_MARAVI-602-SANDBOX\DLL_HOOKING\X64\DEBUG\INJECTOR.EXE" /INCREMENTAL /ILK:"X64\DEBUG\INJECTOR.ILK" /NOLOGO KERNEL32.LIB USER32.LIB GDI32.LIB WINSPOOL.LIB COMDLG32.LIB ADVAPI32.LIB SHELL32.LIB OLE32.LIB OLEAUT32.LIB UUID.LIB ODBC32.LIB ODBCCP32.LIB /MANIFEST /MANIFESTUAC:"level='asInvoker' uiAccess='false'" /manifest:embed /DEBUG /PDB:"C:\USERS\A\DESKTOP\GALIL_MARAVI-602-SANDBOX\DLL_HOOKING\X64\DEBUG\INJECTOR.PDB" /SUBSYSTEM:CONSOLE /TLBID:1 /DYNAMICBASE /NXCOMPAT /IMPLIB:"C:\USERS\A\DESKTOP\GALIL_MARAVI-602-SANDBOX\DLL_HOOKING\X64\DEBUG\INJECTOR.LIB" /MACHINE:X64 X64\DEBUG\INJECTOR.OBJ
X64\DEBUG\STDAFX.OBJ
