^C:\USERS\SHON\DESKTOP\MAGSHIMIM\ENDPROJECT\HOOKING\DLL\INJECTOR\X64\DEBUG\INJECTOR.OBJ|C:\USERS\SHON\DESKTOP\MAGSHIMIM\ENDPROJECT\HOOKING\DLL\INJECTOR\X64\DEBUG\STDAFX.OBJ
C:\USERS\SHON\DESKTOP\MAGSHIMIM\ENDPROJECT\HOOKING\DLL\X64\DEBUG\INJECTOR.EXE
C:\USERS\SHON\DESKTOP\MAGSHIMIM\ENDPROJECT\HOOKING\DLL\INJECTOR\X64\DEBUG\INJECTOR.ILK
C:\USERS\SHON\DESKTOP\MAGSHIMIM\ENDPROJECT\HOOKING\DLL\X64\DEBUG\INJECTOR.PDB
^C:\USERS\A\DESKTOP\GALIL_MARAVI-602-SANDBOX\DLL_HOOKING\INJECTOR\X64\DEBUG\INJECTOR.OBJ|C:\USERS\A\DESKTOP\GALIL_MARAVI-602-SANDBOX\DLL_HOOKING\INJECTOR\X64\DEBUG\STDAFX.OBJ
C:\USERS\A\DESKTOP\GALIL_MARAVI-602-SANDBOX\DLL_HOOKING\INJECTOR\X64\DEBUG\INJECTOR.ILK
C:\USERS\A\DESKTOP\GALIL_MARAVI-602-SANDBOX\DLL_HOOKING\X64\DEBUG\INJECTOR.EXE
C:\USERS\A\DESKTOP\GALIL_MARAVI-602-SANDBOX\DLL_HOOKING\X64\DEBUG\INJECTOR.PDB
